^C:\USERS\USER\DESKTOP\VISUAL STUDIO PROJECTS\VISUAL STUDIO 2019\BASEKJOON_220803\NUM_11098\X64\DEBUG\N11098.OBJ
/OUT:"C:\USERS\USER\DESKTOP\VISUAL STUDIO PROJECTS\VISUAL STUDIO 2019\BASEKJOON_220803\X64\DEBUG\NUM_11098.EXE" /INCREMENTAL /ILK:"X64\DEBUG\NUM_11098.ILK" /NOLOGO KERNEL32.LIB USER32.LIB GDI32.LIB WINSPOOL.LIB COMDLG32.LIB ADVAPI32.LIB SHELL32.LIB OLE32.LIB OLEAUT32.LIB UUID.LIB ODBC32.LIB ODBCCP32.LIB /MANIFEST /MANIFESTUAC:"level='asInvoker' uiAccess='false'" /manifest:embed /DEBUG /PDB:"C:\USERS\USER\DESKTOP\VISUAL STUDIO PROJECTS\VISUAL STUDIO 2019\BASEKJOON_220803\X64\DEBUG\NUM_11098.PDB" /SUBSYSTEM:CONSOLE /TLBID:1 /DYNAMICBASE /NXCOMPAT /IMPLIB:"C:\USERS\USER\DESKTOP\VISUAL STUDIO PROJECTS\VISUAL STUDIO 2019\BASEKJOON_220803\X64\DEBUG\NUM_11098.LIB" /MACHINE:X64 X64\DEBUG\N11098.OBJ
^C:\USERS\USER\DESKTOP\PORTFOLIO_MYEONG\03_소스 코드\03_백준 문제풀이\NUM_11098\X64\DEBUG\N11098.OBJ
/OUT:"C:\USERS\USER\DESKTOP\PORTFOLIO_MYEONG\03_소스 코드\03_백준 문제풀이\X64\DEBUG\NUM_11098.EXE" /INCREMENTAL /ILK:"X64\DEBUG\NUM_11098.ILK" /NOLOGO /LIBPATH:"C:\DEV\VCPKG\INSTALLED\X64-WINDOWS\DEBUG\LIB" /LIBPATH:"C:\DEV\VCPKG\INSTALLED\X64-WINDOWS\DEBUG\LIB\MANUAL-LINK" KERNEL32.LIB USER32.LIB GDI32.LIB WINSPOOL.LIB COMDLG32.LIB ADVAPI32.LIB SHELL32.LIB OLE32.LIB OLEAUT32.LIB UUID.LIB ODBC32.LIB ODBCCP32.LIB "C:\DEV\VCPKG\INSTALLED\X64-WINDOWS\DEBUG\LIB\*.LIB" /MANIFEST /MANIFESTUAC:"level='asInvoker' uiAccess='false'" /manifest:embed /DEBUG /PDB:"C:\USERS\USER\DESKTOP\PORTFOLIO_MYEONG\03_소스 코드\03_백준 문제풀이\X64\DEBUG\NUM_11098.PDB" /SUBSYSTEM:CONSOLE /TLBID:1 /DYNAMICBASE /NXCOMPAT /IMPLIB:"C:\USERS\USER\DESKTOP\PORTFOLIO_MYEONG\03_소스 코드\03_백준 문제풀이\X64\DEBUG\NUM_11098.LIB" /MACHINE:X64 X64\DEBUG\N11098.OBJ
