^C:\USERS\USER\DESKTOP\VISUAL STUDIO PROJECTS\VISUAL STUDIO 2019\BASEKJOON_220803\NUM_10950\NUM_10950.CPP
C:\USERS\USER\DESKTOP\VISUAL STUDIO PROJECTS\VISUAL STUDIO 2019\BASEKJOON_220803\NUM_10950\DEBUG\VC142.PDB
C:\USERS\USER\DESKTOP\VISUAL STUDIO PROJECTS\VISUAL STUDIO 2019\BASEKJOON_220803\NUM_10950\DEBUG\VC142.IDB
C:\USERS\USER\DESKTOP\VISUAL STUDIO PROJECTS\VISUAL STUDIO 2019\BASEKJOON_220803\NUM_10950\DEBUG\NUM_10950.OBJ
