^C:\USERS\USER\DESKTOP\VISUAL STUDIO PROJECTS\VISUAL STUDIO 2019\BASEKJOON_220803\NUM_5635\DEBUG\N5635.OBJ
C:\USERS\USER\DESKTOP\VISUAL STUDIO PROJECTS\VISUAL STUDIO 2019\BASEKJOON_220803\NUM_5635\DEBUG\NUM_5635.ILK
C:\USERS\USER\DESKTOP\VISUAL STUDIO PROJECTS\VISUAL STUDIO 2019\BASEKJOON_220803\DEBUG\NUM_5635.EXE
C:\USERS\USER\DESKTOP\VISUAL STUDIO PROJECTS\VISUAL STUDIO 2019\BASEKJOON_220803\DEBUG\NUM_5635.PDB
