^C:\USERS\USER\DESKTOP\VISUAL STUDIO PROJECTS\VISUAL STUDIO 2019\BASEKJOON_220803\NUM_2800\MAIN.CPP
C:\USERS\USER\DESKTOP\VISUAL STUDIO PROJECTS\VISUAL STUDIO 2019\BASEKJOON_220803\NUM_2800\DEBUG\VC142.PDB
C:\USERS\USER\DESKTOP\VISUAL STUDIO PROJECTS\VISUAL STUDIO 2019\BASEKJOON_220803\NUM_2800\DEBUG\VC142.IDB
C:\USERS\USER\DESKTOP\VISUAL STUDIO PROJECTS\VISUAL STUDIO 2019\BASEKJOON_220803\NUM_2800\DEBUG\MAIN.OBJ
