^C:\USERS\USER\DESKTOP\VISUAL STUDIO PROJECTS\VISUAL STUDIO 2019\BASEKJOON_220803\NUM_1158\DEBUG\MAIN.OBJ
C:\USERS\USER\DESKTOP\VISUAL STUDIO PROJECTS\VISUAL STUDIO 2019\BASEKJOON_220803\DEBUG\NUM_1158.EXE
C:\USERS\USER\DESKTOP\VISUAL STUDIO PROJECTS\VISUAL STUDIO 2019\BASEKJOON_220803\NUM_1158\DEBUG\NUM_1158.ILK
C:\USERS\USER\DESKTOP\VISUAL STUDIO PROJECTS\VISUAL STUDIO 2019\BASEKJOON_220803\DEBUG\NUM_1158.PDB
