^C:\USERS\USER\DESKTOP\PORTFOLIO_MYEONG\03_소스 코드\03_백준 문제풀이\NUM_2493\X64\DEBUG\MAIN.OBJ
C:\USERS\USER\DESKTOP\PORTFOLIO_MYEONG\03_소스 코드\03_백준 문제풀이\X64\DEBUG\NUM_2493.EXE
C:\USERS\USER\DESKTOP\PORTFOLIO_MYEONG\03_소스 코드\03_백준 문제풀이\NUM_2493\X64\DEBUG\NUM_2493.ILK
C:\USERS\USER\DESKTOP\PORTFOLIO_MYEONG\03_소스 코드\03_백준 문제풀이\X64\DEBUG\NUM_2493.PDB
